     1    33    63    91   117   141   163   183   201   217   231   243   253
    16    15    14    13    12    11    10     9     8     7     6     5     4
     1    17    32    46    59    71    82    92   101   109   116   122   127
